mtllib cube.mtl
o Cube
v 0.5 0.5 -0.5
v 0.5 -0.5 -0.5
v 0.5 0.5 0.5
v 0.5 -0.5 0.5
v -0.5 0.5 -0.5
v -0.5 -0.5 -0.5
v -0.5 0.5 0.5
v -0.5 -0.5 0.5
vn 0 1 0
vn 0 0 1
vn -1 0 0
vn 0 -1 0
vn 1 0 0
vn 0 0 -1
vt 0.326507 0.673493
vt 0.326507 0.670976
vt 0.329745 0.343117
vt 0.656252 1
vt 0.326507 0.344470
vt 0.329745 0.016610
vt 0 0.673493
vt 0.326507 0.343117
vt 0 0.670976
vt 0.326507 0.016610
vt 0.329745 1
vt 0 0.344470
vt 0.326507 1
vt 0.329745 0.670976
vt 0.656252 0.343117
vt 0.329745 0.344470
vt 0.656252 0.673493
vt 0.656252 0.016610
vt 0 1
vt 0 0.343117
vt 0.656252 0.670976
vt 0 0.016610
vt 0.656252 0.344470
vt 0.329745 0.673493
s 0
usemtl Material
f 1/1/1 5/13/1 7/19/1 3/7/1
f 4/10/2 3/8/2 7/20/2 8/22/2
f 8/23/3 7/21/3 5/14/3 6/16/3
f 6/17/4 2/4/4 4/11/4 8/24/4
f 2/5/5 1/2/5 3/9/5 4/12/5
f 6/18/6 5/15/6 1/3/6 2/6/6
