<?xml version="1.0" encoding="UTF-8"?>
<svg width="57.962mm" height="66mm" version="1.1" viewBox="0 0 57.962 66" xmlns="http://www.w3.org/2000/svg">
<g transform="translate(-74.942 -57)">
<path d="m103.92 56.667 28.868 16.667-28.868 16.667-28.868-16.667z" fill-opacity=".21613" opacity=".997" style="paint-order:normal"/>
<path d="m132.79 73.333v33.333l-28.868 16.667v-33.333z" fill-opacity=".21613" opacity=".997" style="paint-order:normal"/>
<path d="m75.056 73.333v33.333l28.868 16.667v-33.333z" fill-opacity=".21613" opacity=".997" style="paint-order:normal"/>
<path d="m129.81 74.95v30l-25.981 15v-30z" fill="#c19036" opacity=".997" style="paint-order:normal"/>
<path d="m77.942 75v30l25.981 15v-30z" fill="#a36928" opacity=".997" style="paint-order:normal"/>
<path d="m125.57 82.5v20l-17.32 10v-20z" fill-opacity=".07" opacity=".997" style="paint-order:normal"/>
<path d="m82.272 82.5v20l17.321 10v-20z" fill-opacity=".07" opacity=".997" style="paint-order:normal"/>
<path d="m103.92 60 25.981 15-25.981 15-25.981-15z" fill="#ffde55" opacity=".997" style="paint-order:normal"/>
<path d="m103.92 65 17.32 10-17.32 10-17.321-10z" fill-opacity=".071909" opacity=".997" style="paint-order:normal"/>
<path d="m103.92 65 17.32 10-17.32 10v-10z" fill="#dfc14a" opacity=".997" style="paint-order:normal"/>
<path d="m103.92 75 8.6602 5-8.6602 5-8.6603-5z" fill="#d4b747" opacity=".997" style="paint-order:normal"/>
</g>
</svg>
